<?xml version="1.0" encoding="utf-8"?>
<!-- Generator: Adobe Illustrator 19.0.0, SVG Export Plug-In . SVG Version: 6.00 Build 0)  -->
<svg version="1.1" id="Layer_1" xmlns="http://www.w3.org/2000/svg" xmlns:xlink="http://www.w3.org/1999/xlink" x="0px" y="0px"
	 viewBox="0 0 512 512" style="enable-background:new 0 0 512 512;" xml:space="preserve">
<style type="text/css">
	.st0{fill:#6594AD;}
	.st1{fill:#21607B;}
</style>
<g id="XMLID_5_">
	<path id="XMLID_19_" class="st0" d="M424.9790039,56.2594452c-27.9241333-1.9816666-121.3966064-5.1064835-210.2991486,58.0135651
		c-66.3190002,47.0858917-96.7649155,107.3716888-108.7754288,135.3650055
		c2.9742203-17.3527832,19.6183395-103.7310181,100.3151321-160.7459412
		C303.7561035,19.9792805,412.3471985,52.2667847,424.9790039,56.2594452z"/>
	<path id="XMLID_10_" class="st1" d="M129.4755859,416.5849915c-0.4715576-8.7042236,6.1235962-16.4314575,20.0075073-23.3540649
		c-26.5045776-29.0908203-63.1644897-81.3551025-61.7078857-147.21875
		c2.2541504-101.9267578,95.0015869-200.6312866,228.4284058-223.5940552
		C191.022522,0.976407,71.9065552,68.0152283,32.178894,174.7037659
		c-30.831358,82.7974854-10.6154766,180.7924805,53.1790161,246.5576782
		c69.9022827,72.0615845,179.8422852,92.7621155,274.355835,50.7618408
		c-12.9353638,1.4532471-72.0571899,7.0789185-134.8703613-22.5626221
		c-15.2531128-0.8283691-29.3985596-2.2567139-41.9068604-4.276062
		C147.6977539,439.4951477,130.2104492,430.139679,129.4755859,416.5849915z"/>
	<circle id="XMLID_4_" class="st0" cx="323.4552612" cy="140.8625183" r="31.4240246"/>
	<path id="XMLID_3_" class="st1" d="M493.6714172,191.6107635c-2.1343079-9.8402405-14.4307861-16.3153687-25.5200195-10.1286926
		c-18.0196838,3.075592-34.5671387,5.8998871-52.586731,8.9754791c-22.0319824-3.6171875-44.0638123-7.234314-66.0957947-10.8514404
		c-9.3122559-1.5288849-18.7070618,2.2136841-24.4172668,9.727005
		c-12.2153931,16.0728912-24.4307251,32.1458435-36.6461182,48.2186737
		c-18.9350281,9.6689301-37.8699799,19.3378601-56.8050079,29.0068054
		c-9.2243042,4.6124878-12.7737122,15.7591248-8.4602966,24.1723022c3.8349152,7.47995,13.1178589,11.3030701,21.7550659,8.4602966
		c21.3522797-11.2803955,42.7044525-22.560791,64.0566864-33.8411865
		c7.6545715-10.0718231,15.3091125-20.1435852,22.9636841-30.2153625c6.441864,10.5102844,12.883667,21.0206299,19.32547,31.5310364
		c2.6102905,4.2589722-0.7748718,10.3232422-7.2045288,8.981842c-22.2073364,9.6486206-37.5952148,16.3344116-59.8025818,25.9830322
		c-15.5301514,27.7908325-31.0602875,55.5816345-46.5904541,83.372406
		c-6.5677948,8.9411011-4.3320618,21.1519165,3.625885,26.5895081c6.6364288,4.534668,16.348999,3.7415771,22.9637146-2.4172363
		l51.7778931-84.0663452c2.0785522,23.5905457,4.1570435,47.1810913,6.2356262,70.771637
		c1.5310974,8.0646057,8.1206665,14.002655,15.7120667,14.5033875c0.3529663,0.0232849,0.7054443,0.0346375,1.0569763,0.0343323
		c8.1428223-0.0075378,14.6295776-6.8866882,14.7587585-15.0285339c0.3683472-23.2030029,0.7365417-46.4059753,1.1048279-69.6089783
		c17.8326721-11.2627258,35.6653137-22.5254822,53.4979248-33.7881775
		c8.5450439-5.3968506,11.1897278-16.6454163,5.9445801-25.2843933
		c-10.5481262-17.3733826-21.0961609-34.7466888-31.6442261-52.1200714
		c12.8917847,2.8200378,25.783783,5.6402588,38.6756592,8.4603577c19.760376-4.1800842,39.5207825-8.3601685,59.2812195-12.5402527
		c5.2688599-1.114563,9.8738708-4.5524292,12.0233459-9.4902954
		C493.9549255,198.0381775,494.3529053,194.7527618,493.6714172,191.6107635z"/>
	<path id="XMLID_14_" class="st0" d="M339.0214844,417.9179993c-0.4833984,0.0029297-1.0351563-0.0166016-1.5595703-0.0507813
		c-11.1347656-0.734375-20.4228516-9.2011719-22.5830078-20.5878906l-0.1025391-0.7402344l-1.4318848-16.2475586
		c-6.9865723,0.1717529-14.0698242,0.4399414-21.236084,0.8286133c-0.6187134,0.0335083-1.2346802,0.0701904-1.8521118,0.1052246
		l-20.1693726,32.7473145l-0.7431641,0.6914063c-5.1855469,4.828125-11.8662109,7.3193359-18.4453125,7.3193359
		c-4.8945313,0-9.7324219-1.3779297-13.8598633-4.1982422c-5.4248047-3.7060547-9.2026367-9.7382813-10.3642578-16.5498047
		c-0.7782593-4.5633545-0.3363037-9.2568359,1.1948242-13.5945435c-16.3596191,2.5296021-31.3681641,5.6260376-44.3588867,9.1980591
		c-32.4663086,8.9267578-39.1430664,17.3320313-39.0561523,18.9335938
		c0.0864258,1.6025391,7.6328125,9.2363281,40.8735352,14.6035156c29.409668,4.7480469,68.3535156,6.1318359,109.6606445,3.8925781
		c41.3046875-2.2373047,79.8720703-7.8203125,108.5966797-15.71875
		c32.4658203-8.9267578,39.1425781-17.3320313,39.0556641-18.9335938v-0.0009766
		c-0.0869141-1.6015625-7.6318359-9.2363281-40.8730469-14.6035156c-11.9942017-1.9361572-25.583374-3.3079834-40.2624512-4.1075439
		l-0.2316895,14.6046143C361.078125,407.8545227,351.0957031,417.9082336,339.0214844,417.9179993z"/>
</g>
</svg>
