<?xml version="1.0" encoding="utf-8"?>
<!-- Generator: Adobe Illustrator 19.0.0, SVG Export Plug-In . SVG Version: 6.00 Build 0)  -->
<svg version="1.1" id="Layer_1" xmlns="http://www.w3.org/2000/svg" xmlns:xlink="http://www.w3.org/1999/xlink" x="0px" y="0px"
	 viewBox="0 0 512 512" style="enable-background:new 0 0 512 512;" xml:space="preserve">
<style type="text/css">
	.st0{fill:#21607B;}
	.st1{fill:#6594AD;}
</style>
<g>
	<path id="XMLID_15_" class="st0" d="M230.7094116,281.8555908c20.0680237,15.4761047,40.1359863,30.9523621,60.2039795,46.4284973
		c-5.9523315,26.1903992-11.9047546,52.3808899-17.8571167,78.5712891
		c1.5369263,11.0548401,10.2510376,19.6560364,20.918335,20.918335c9.6513367,1.1419983,19.2251892-3.921936,23.9795532-12.7550659
		c6.8960571-32.9130859,13.7921143-65.8261414,20.6882324-98.7392273c1.079895-5.1541138-0.8316956-10.477417-4.9437866-13.7670898
		l-54.5198669-43.6159058c23.2992554-21.938736,46.5985718-43.8774719,69.8978271-65.8162231
		c30.9523926,25.8502808,61.9046326,51.7006226,92.8569946,77.5509033
		c7.3234863,6.2995605,17.7214966,6.6741333,24.4897766,1.5306091c8.1634827-6.2038879,9.7929993-19.4828186,2.040802-28.5713806
		c-46.0347595-37.5591125-92.0696716-75.1181641-138.1044617-112.6772766
		c-2.1280823-1.7362823-4.5698242-3.0477295-7.1925354-3.8630829
		c-31.4995422-9.7925949-62.9990234-19.5851898-94.4985504-29.3777847
		c-11.3945618-24.6598434-22.7890472-49.3196297-34.183609-73.9794769
		c-6.0069733-6.2286911-15.5816345-7.4944839-22.9591522-3.0612202c-7.2854004,4.3778954-10.680954,13.2634163-8.1632538,21.4285393
		c13.435379,29.0815887,26.8706818,58.1631775,40.3060608,87.2447662
		c20.5782166,5.4421539,41.1563721,10.8843536,61.7345886,16.3265076l-74.5033722,73.1064453
		c-4.5486145,4.4633179-7.0474701,10.6099396-6.9034882,16.9809875c0.605072,26.7734833,1.210083,53.5469818,1.815155,80.3204803
		l-84.1835403,42.8570557c-11.0707016,7.9305725-13.2664719,22.6101379-6.6326447,31.6325989
		c5.1085739,6.9480286,15.0253372,9.9593201,24.4897537,7.1428528
		c33.0289612-16.5144958,66.0578613-33.0289001,99.0868225-49.543396c4.3676453-2.1838379,7.2771606-6.4906311,7.6728668-11.3577576
		L230.7094116,281.8555908z"/>
	<circle id="XMLID_13_" class="st1" cx="354.6888123" cy="80.8354797" r="44.8978882"/>
	<path id="XMLID_14_" class="st1" d="M471.8484802,493.7967224L34.9459915,425.9549866
		c-9.2573395-1.437561-15.5966396-10.1073914-14.1591396-19.3646545V406.59021
		c1.4374371-9.2572937,10.1073437-15.5965881,19.3646832-14.1591492l436.9024658,67.8417053
		c9.2572937,1.437561,15.5965881,10.1074219,14.1591492,19.3646851v0.0001221
		C489.7756042,488.8948669,481.1057434,495.2341614,471.8484802,493.7967224z"/>
	<path id="XMLID_18_" class="st1" d="M123.3841553,437.5322876c-5.9504852,6.3723145-23.618782,21.7141724-38.6132889,28.5474854
		c-22.473671,10.2416992-43.0021286,9.2515564-52.5509415,8.163269
		c10.9926643-15.2485657,21.9853287-30.4972229,32.9779892-45.7457886L123.3841553,437.5322876z"/>
</g>
</svg>
