<?xml version="1.0" encoding="utf-8"?>
<!-- Generator: Adobe Illustrator 19.0.0, SVG Export Plug-In . SVG Version: 6.00 Build 0)  -->
<svg version="1.1" id="Layer_1" xmlns="http://www.w3.org/2000/svg" xmlns:xlink="http://www.w3.org/1999/xlink" x="0px" y="0px"
	 viewBox="0 0 512 512" style="enable-background:new 0 0 512 512;" xml:space="preserve">
<style type="text/css">
	.st0{fill:#22617B;}
	.st1{fill:#23617C;}
	.st2{fill:#6594AD;}
</style>
<g>
	<path id="XMLID_5_" class="st0" d="M255.9999847,493.7149658L481,367.1786499v-29.3296204H349.8547668l92.4078674,8.0069885
		L255.9999847,450.6072083L69.7373276,345.8560181l92.4078903-8.0069885H31v29.3296204L255.9999847,493.7149658z
		 M46.0838051,348.3233337v-0.4177246l14.7657166-1.2794495l195.1504669,109.749176l195.1504669-109.749176l14.7657471,1.2794495
		v0.4177246v11.3134155l-209.915802,118.0532227l-0.000412,0.1031799l-0.0003662-0.1031799L46.0838051,359.6367493V348.3233337z"/>
	<path id="XMLID_16_" class="st1" d="M191.7802429,300.9737854c-0.4981384-0.2137756-1.0296478-0.3201599-1.5606842-0.3201599
		c-0.5310211,0-1.0625305,0.1063843-1.5606689,0.3201599l-19.7331696,8.4577637
		c-0.2708435,0.1160583-0.5063629,0.0531921-0.6577454-0.0193481c-0.1499176-0.0725403-0.3448334-0.2185974-0.4217224-0.500061
		c-6.4627838-23.731842-11.5302887-48.029541-15.0617676-72.2188873
		c-1.6199799-11.0980988-3.6514893-25.021759-4.9188385-41.5405731l39.3634949-13.02211
		c0.1892853-4.9629669,0.4558868-10.0351868,0.8106995-15.2162781
		c2.8577728-41.7273178,10.2941132-75.3702316,21.5042267-97.2908707c3.0418549-5.9482498,6.415863-11.731163,10.0935822-17.3399696
		c-6.4512939-11.0335884-14.3344421-21.3000145-23.5564575-30.5768681
		c-1.5524597-1.5616493-3.6340179-2.4215469-5.8616333-2.4215469c-2.2280884,0-4.3096466,0.8598976-5.8621063,2.4215469
		c-11.2265472,11.2937832-20.506485,24.0345936-27.5810699,37.8688965
		c-8.9225311,17.4475174-14.8383179,44.1846542-17.1080017,77.3212051
		c-1.4653473,21.3951721-1.0426483,40.4520874,0.1557312,56.9961853
		c1.2721252,17.5617218,3.4186096,32.2909851,5.1197205,43.9446564
		c3.5774384,24.5046692,8.7107086,49.1177063,15.2571564,73.1561584c0.6616058,2.4297791,2.3456116,4.4542542,4.6201324,5.5530701
		c2.2745361,1.0978394,4.9098358,1.1607056,7.2254791,0.1683044l18.1729584-7.7893982l7.3179626,3.1366577
		c-0.5257568-3.0917969-1.0370789-6.1828003-1.5241699-9.2741699L191.7802429,300.9737854z"/>
	<path id="XMLID_20_" class="st2" d="M312.6981506,165.9142914c-2.8572998-41.7248993-10.2936401-75.3673325-21.5032654-97.2908707
		c-8.8901367-17.383194-20.5514526-33.3938408-34.6599731-47.5874863c-1.7638245-1.773962-4.1311951-2.7509003-6.6654358-2.7509003
		c-2.5337524,0-4.901123,0.9764538-6.6663818,2.7513847c-9.2807922,9.3361588-17.4947968,19.463726-24.5654449,30.2470284
		c-3.6777191,5.6088066-7.0517273,11.3917198-10.0935822,17.3399658
		c-11.2101135,21.920639-18.6464539,55.5635529-21.5042267,97.290863
		c-0.3548126,5.1810913-0.6214142,10.2533112-0.8106995,15.2162781
		c-1.842514,48.3129425,3.6882477,86.2084351,7.4678955,112.1004028c0.416214,2.8511963,0.8668518,5.7042542,1.3163147,8.5571594
		c0.4870911,3.0913696,0.9984131,6.182373,1.5241699,9.2741699c4.250412,24.9938354,9.7373962,49.9713135,16.4109802,74.4776306
		c0.7568817,2.7789612,2.683197,5.0936279,5.285614,6.3500977c1.3725586,0.6635437,2.8592377,0.9962769,4.3459167,0.9962769
		c1.3324127,0,2.6652985-0.2669678,3.9169464-0.8038025l23.3724976-10.0169678l23.3720093,10.0160217
		c2.6473999,1.1374817,5.6585083,1.065918,8.2623901-0.1905518c2.6029053-1.2574463,4.5296936-3.572113,5.2861023-6.3510742
		c8.2613831-30.3363037,14.7391663-61.3942261,19.2514648-92.30896
		C310.2093811,264.6802368,316.5082092,221.5354004,312.6981506,165.9142914z M298.2007751,292.0857544
		c-4.4668274,30.6003723-10.8778381,61.3429565-19.0560608,91.3726501
		c-0.2108765,0.7738037-0.7709045,1.1442566-1.0862427,1.2970886c-0.3162842,0.152832-0.955658,0.3617554-1.6956177,0.0435486
		l-24.9326935-10.6853943c-0.9962921-0.4275208-2.1250763-0.4275208-3.1213684,0l-24.9336548,10.6853943
		c-0.7389984,0.3191833-1.3788452,0.1092834-1.6951447-0.0435486c-0.3148346-0.152832-0.8753662-0.5232849-1.0862274-1.2970886
		c-6.1573029-22.6109619-11.3113861-45.6261292-15.390213-68.6816101c-0.5482025-3.0983276-1.0663452-6.1973877-1.5754395-9.2962952
		c-0.7335968-4.4661255-1.4389191-8.9319153-2.0904388-13.3947449c-3.8122253-26.1179199-9.4226685-64.602417-7.2626343-113.6169128
		c0.1736145-3.9393616,0.3911896-7.9382782,0.6702423-12.0128784c2.7852478-40.6676788,9.9270477-73.2499924,20.654007-94.2246399
		c2.2665405-4.432251,4.7435303-8.759552,7.3817444-12.997982c6.5526123-10.5273476,14.2113495-20.4444084,22.9265289-29.605978
		v312.9128418c0,2.1879578,1.7739563,3.9619141,3.9619141,3.9619141s3.9619141-1.7739563,3.9619141-3.9619141V29.6276054
		c12.2246704,12.8518028,22.4129028,27.1645393,30.3082581,42.6037178
		c10.7269897,20.977066,17.8682861,53.5593796,20.6540222,94.2246399
		C308.5447083,221.2302246,302.319397,263.870636,298.2007751,292.0857544z"/>
</g>
</svg>
